define lidar ranger
(
	sensor( 			
    range [ 0.4  25.0 ]
    fov 360.0
   samples 1200
  )

  # generic model properties
  color "black"
  size [ 0.050 0.050 0.100 ]
)

define robot position
(
  size [0.600 0.400 0.500]
  origin [0.000 0.000 0.000 0.000]
  gui_nose 1
  drive "diff"
  lidar(pose [ 0.280 0.000 0.000 0.000 ])
)

define floorplan model
(
  # sombre, sensible, artistic
  color "gray30"

  # most maps will need a bounding box
  boundary 1

  gui_nose 0
  gui_grid 0

  gui_outline 0
  gripper_return 0
  fiducial_return 0
  ranger_return 1.000
)

# set the resolution of the underlying raytrace model in meters
resolution 0.02

interval_sim 100  # simulation timestep in milliseconds

window
( 
  size [ 745 448 ] 

  rotate [ 0.000 0.000 ]
  scale 20.000 
)

# load an environment bitmap
floorplan
( 
  name "bag2-building"
  bitmap "bag2_scan_map.pgm"
  size [19.600 35.100 1.000]
  pose [ -0.100 12.500 0.000 0.000 ]
)

# throw in a robot
robot( pose [ 0.900 1.000 0.000 90.000 ] name "robot" color "red")
